…
```r
malaria_tidy <- malaria %>% 
  pivot_longer(col = starts_with("malaria_rdt"),
               names_to = "age_group",
               values_to = "rdt")
malaria_tidy
```

```
## # A tibble: 9,114 × 9
##    location_name data_date  submitted_date province district malaria_tot newid
##    <chr>         <date>     <date>         <chr>    <chr>          <dbl> <dbl>
##  1 Facility 1    2020-08-11 2020-08-12     North    Spring            46     1
##  2 Facility 1    2020-08-11 2020-08-12     North    Spring            46     1
##  3 Facility 1    2020-08-11 2020-08-12     North    Spring            46     1
##  4 Facility 2    2020-08-11 2020-08-12     North    Bolo              26     2
##  5 Facility 2    2020-08-11 2020-08-12     North    Bolo              26     2
##  6 Facility 2    2020-08-11 2020-08-12     North    Bolo              26     2
##  7 Facility 3    2020-08-11 2020-08-12     North    Dingo             18     3
##  8 Facility 3    2020-08-11 2020-08-12     North    Dingo             18     3
##  9 Facility 3    2020-08-11 2020-08-12     North    Dingo             18     3
## 10 Facility 4    2020-08-11 2020-08-12     North    Bolo              49     4
## # ℹ 9,104 more rows
## # ℹ 2 more variables: age_group <chr>, rdt <dbl>
```
…
