…
```r
# number of total observations in the data
```


```r
deserts %>% 
  count(genus, species, sort = T)
```

```
## # A tibble: 48 × 3
##    genus           species          n
##    <chr>           <chr>        <int>
##  1 Dipodomys       merriami     10596
##  2 Chaetodipus     penicillatus  3123
##  3 Dipodomys       ordii         3027
##  4 Chaetodipus     baileyi       2891
##  5 Reithrodontomys megalotis     2609
##  6 Dipodomys       spectabilis   2504
##  7 Onychomys       torridus      2249
##  8 Perognathus     flavus        1597
##  9 Peromyscus      eremicus      1299
## 10 Neotoma         albigula      1252
## # ℹ 38 more rows
```
…
7. [Dipodomys merriami](https://en.wikipedia.org/wiki/Merriam's_kangaroo_rat) is the most frequently sampled animal in the study. How have the number of observations of this species changed over the years included in the study?


```r
deserts %>% 
  filter(genus=="Dipodomys" & species=="merriami") %>% 
  group_by(year) %>% 
  count(species)
```

```
## # A tibble: 26 × 3
## # Groups:   year [26]
##     year species      n
##    <dbl> <chr>    <int>
##  1  1977 merriami   264
##  2  1978 merriami   389
##  3  1979 merriami   209
##  4  1980 merriami   493
##  5  1981 merriami   559
##  6  1982 merriami   609
##  7  1983 merriami   528
##  8  1984 merriami   396
##  9  1985 merriami   667
## 10  1986 merriami   406
## # ℹ 16 more rows
```
…
9. Which two species have, on average, the highest weight? Once you have identified them, make a new column that is a ratio of `weight` to `hindfoot_length`. Make a plot that shows the range of this new ratio and fill by sex.


```r
deserts %>% 
  filter(weight != "NA") %>% 
  group_by(species) %>% 
  summarize(avg_weight=mean(weight, na.rm = T)) %>% 
  arrange(desc(avg_weight))
```

```
## # A tibble: 22 × 2
##    species      avg_weight
##    <chr>             <dbl>
##  1 albigula          159. 
##  2 spectabilis       120. 
##  3 spilosoma          93.5
##  4 hispidus           65.6
##  5 fulviventer        58.9
##  6 ochrognathus       55.4
##  7 ordii              48.9
##  8 merriami           43.2
##  9 baileyi            31.7
## 10 leucogaster        31.6
## # ℹ 12 more rows
```
…
