…
The pack size dropped down to 0 in 2010. Given that there were no human caused moralities (`mortYN`) in 2010 and the years leading up to it (2009-2001), I don't think the drop in pack size is due to human-led hunting or eradication efforts. For one reason or another, the entire Druid pack seemed to have moved out of Yellow Stone in 2010; perhaps in search of better food and shelter, or maybe because they were displaced by another wolf pack.

Problem 9. (5 points) Among the YNP wolf packs, which one has had the highest overall persistence `persisty1` for the years represented in the data? Look this pack up online and tell me what is unique about its behavior- specifically, what prey animals does this pack specialize on?


```r
ynp %>% 
  group_by(pack) %>% 
  summarize(overall_persistence=sum(persisty1)) %>% 
  arrange(desc(overall_persistence))
```

```
## # A tibble: 46 × 2
##    pack        overall_persistence
##    <chr>                     <int>
##  1 mollies                      26
##  2 cougar                       20
##  3 yelldelta                    18
##  4 leopold                      12
##  5 agate                        10
##  6 8mile                         9
##  7 canyon                        9
##  8 gibbon/mary                   9
##  9 junction                      8
## 10 lamar                         8
## # ℹ 36 more rows
```
…
