…
5. (3 points) How do the number and types of injuries compare by county? Make a table (not a plot) that shows the number of injury types by county. Which county has the highest number of fatalities?  


```r
sharks %>% 
  group_by(county, injury) %>% 
  summarize(n_injury=n(), .groups = "keep") %>% 
  pivot_wider(names_from = injury,
              values_from = n_injury) %>% 
  arrange(desc(fatal))
```

```
## # A tibble: 21 × 5
## # Groups:   county [21]
##    county              minor  none major fatal
##    <chr>               <int> <int> <int> <int>
##  1 San Luis Obispo         1     7     3     3
##  2 Monterey                2     3     8     2
##  3 San Diego               8     9     4     2
##  4 Santa Barbara           6     9     2     2
##  5 Island - San Miguel     2    NA     2     1
##  6 Los Angeles             6     2    NA     1
##  7 Mendocino               1    NA     3     1
##  8 San Francisco          NA     1    NA     1
##  9 San Mateo               4    12     1     1
## 10 Santa Cruz              3     8     3     1
## # ℹ 11 more rows
```
…
