…
```r
bison_new <- bison %>% 
  select("data_code", "animal_sex", "animal_weight", "animal_yob")
```

4. pull out the animals born between 1980 and 1990

```r
bison_new %>% 
  filter(animal_yob %in% c(1980, 1990))
```

```
## # A tibble: 82 × 4
##    data_code animal_sex animal_weight animal_yob
##    <chr>     <chr>              <dbl>      <dbl>
##  1 CBH01     F                    930       1990
##  2 CBH01     F                    950       1990
##  3 CBH01     F                    917       1990
##  4 CBH01     F                    900       1990
##  5 CBH01     F                    884       1990
##  6 CBH01     M                   1552       1990
##  7 CBH01     M                   1572       1990
##  8 CBH01     M                   1538       1990
##  9 CBH01     F                    952       1990
## 10 CBH01     M                   1422       1990
## # ℹ 72 more rows
```
…
