…
```
## # A tibble: 1 × 1
##   n_countries
##         <int>
## 1         203
```


```r
fisheries_tidy %>% 
  distinct(country)
```

```
## # A tibble: 203 × 1
##    country            
##    <fct>              
##  1 Albania            
##  2 Algeria            
##  3 American Samoa     
##  4 Angola             
##  5 Anguilla           
##  6 Antigua and Barbuda
##  7 Argentina          
##  8 Aruba              
##  9 Australia          
## 10 Bahamas            
## # ℹ 193 more rows
```

4. Refocus the data only to include country, isscaap_taxonomic_group, asfis_species_name, asfis_species_number, year, catch.

```r
fisheries_tidy <- fisheries_tidy %>% 
  select(country, isscaap_taxonomic_group, asfis_species_name, asfis_species_number, year, catch)
fisheries_tidy
```

```
## # A tibble: 376,771 × 6
##    country isscaap_taxonomic_group asfis_species_name asfis_species_number  year
##    <fct>   <chr>                   <chr>              <fct>                <dbl>
##  1 Albania Sharks, rays, chimaeras Squatinidae        10903XXXXX            1995
##  2 Albania Sharks, rays, chimaeras Squatinidae        10903XXXXX            1996
##  3 Albania Sharks, rays, chimaeras Squatinidae        10903XXXXX            1997
##  4 Albania Sharks, rays, chimaeras Squatinidae        10903XXXXX            1998
##  5 Albania Sharks, rays, chimaeras Squatinidae        10903XXXXX            1999
##  6 Albania Sharks, rays, chimaeras Squatinidae        10903XXXXX            2000
##  7 Albania Sharks, rays, chimaeras Squatinidae        10903XXXXX            2001
##  8 Albania Sharks, rays, chimaeras Squatinidae        10903XXXXX            2002
##  9 Albania Sharks, rays, chimaeras Squatinidae        10903XXXXX            2003
## 10 Albania Sharks, rays, chimaeras Squatinidae        10903XXXXX            2004
## # ℹ 376,761 more rows
## # ℹ 1 more variable: catch <dbl>
```
…
